quantumsim.pauli\_vectors.pauli\_vector.PauliVectorBase.from\_pv
================================================================

.. currentmodule:: quantumsim.pauli_vectors.pauli_vector

.. automethod:: PauliVectorBase.from_pv